…
\# Had an arrival delay of two or more hours (> 120 minutes)
 delay_2hr <- flights %>% 
  filter(arr_delay>=120)
 print(delay_2hr)

\# A tibble: 10,200 × 19
   year month  day dep_time sched_dep_time dep_delay arr_time sched_arr_time
  <int> <int> <int>  <int>     <int>   <dbl>  <int>     <int>
 1 2013   1   1   811      630    101   1047      830
 2 2013   1   1   848      1835    853   1001      1950
 3 2013   1   1   957      733    144   1056      853
 4 2013   1   1   1114      900    134   1447      1222
 5 2013   1   1   1505      1310    115   1638      1431
 6 2013   1   1   1525      1340    105   1831      1626
 7 2013   1   1   1549      1445    64   1912      1656
 8 2013   1   1   1558      1359    119   1718      1515
 9 2013   1   1   1732      1630    62   2028      1825
 10 2013   1   1   1803      1620    103   2008      1750
 \# ℹ 10,190 more rows
 \# ℹ 11 more variables: arr_delay <dbl>, carrier <chr>, flight <int>,
 \#  tailnum <chr>, origin <chr>, dest <chr>, air_time <dbl>, distance <dbl>,
 \#  hour <dbl>, minute <dbl>, time_hour <dttm>

\# Flew to Houston (IAH or HOU)
 dest_IAH_HOU <- flights %>% 
  filter(dest=="IAH"|dest=="HOU")
 print(dest_IAH_HOU)

\# A tibble: 9,313 × 19
   year month  day dep_time sched_dep_time dep_delay arr_time sched_arr_time
  <int> <int> <int>  <int>     <int>   <dbl>  <int>     <int>
 1 2013   1   1   517      515     2   830      819
 2 2013   1   1   533      529     4   850      830
 3 2013   1   1   623      627    -4   933      932
 4 2013   1   1   728      732    -4   1041      1038
 5 2013   1   1   739      739     0   1104      1038
 6 2013   1   1   908      908     0   1228      1219
 7 2013   1   1   1028      1026     2   1350      1339
 8 2013   1   1   1044      1045    -1   1352      1351
 9 2013   1   1   1114      900    134   1447      1222
 10 2013   1   1   1205      1200     5   1503      1505
 \# ℹ 9,303 more rows
 \# ℹ 11 more variables: arr_delay <dbl>, carrier <chr>, flight <int>,
 \#  tailnum <chr>, origin <chr>, dest <chr>, air_time <dbl>, distance <dbl>,
 \#  hour <dbl>, minute <dbl>, time_hour <dttm>

\# we can also do filter(dest %in% c("IAH", "HOU"))
 
 \# Were operated by United (`UA`), American (`AA`), or Delta (`DL`)
 UA_AA_DL <- flights %>% 
  filter(carrier=="UA"| carrier=="AA"| carrier=="DL")
 print(UA_AA_DL)

\# A tibble: 139,504 × 19
   year month  day dep_time sched_dep_time dep_delay arr_time sched_arr_time
  <int> <int> <int>  <int>     <int>   <dbl>  <int>     <int>
 1 2013   1   1   517      515     2   830      819
 2 2013   1   1   533      529     4   850      830
 3 2013   1   1   542      540     2   923      850
 4 2013   1   1   554      600    -6   812      837
 5 2013   1   1   554      558    -4   740      728
 6 2013   1   1   558      600    -2   753      745
 7 2013   1   1   558      600    -2   924      917
 8 2013   1   1    558      600    -2   923      937
 9 2013   1   1   559      600    -1   941      910
 10 2013   1   1   559      600    -1   854      902
 \# ℹ 139,494 more rows
 \# ℹ 11 more variables: arr_delay <dbl>, carrier <chr>, flight <int>,
 \#  tailnum <chr>, origin <chr>, dest <chr>, air_time <dbl>, distance <dbl>,
 \#  hour <dbl>, minute <dbl>, time_hour <dttm>

\# Departed in summer (July, August, and September)
 summer_dep <- flights %>% 
  filter(month=="7"| month=="8"| month=="9")
 print(summer_dep)

\# A tibble: 86,326 × 19
   year month  day dep_time sched_dep_time dep_delay arr_time sched_arr_time
  <int> <int> <int>  <int>     <int>   <dbl>  <int>     <int>
 1 2013   7   1    1      2029    212   236      2359
 2 2013   7   1    2      2359     3   344      344
 3 2013   7   1    29      2245    104   151       1
 4 2013   7   1    43      2130    193   322       14
 5 2013   7   1    44      2150    174   300      100
 6 2013   7   1    46      2051    235   304      2358
 7 2013   7   1    48      2001    287   308      2305
 8 2013   7   1    58      2155    183   335       43
 9 2013   7   1   100      2146    194   327       30
 10 2013   7   1   100      2245    135   337      135
 \# ℹ 86,316 more rows
 \# ℹ 11 more variables: arr_delay <dbl>, carrier <chr>, flight <int>,
 \#  tailnum <chr>, origin <chr>, dest <chr>, air_time <dbl>, distance <dbl>,
 \#  hour <dbl>, minute <dbl>, time_hour <dttm>

\# Arrived more than two hours late, but didn't leave late
 arr_only_delay <-flights %>% 
  filter(arr_delay>=120 & dep_delay<=0)
 print(arr_only_delay)

\# A tibble: 29 × 19
   year month  day dep_time sched_dep_time dep_delay arr_time sched_arr_time
  <int> <int> <int>  <int>     <int>   <dbl>  <int>     <int>
 1 2013   1  27   1419      1420    -1   1754      1550
 2 2013  10   7   1350      1350     0   1736      1526
 3 2013  10   7   1357      1359    -2   1858      1654
 4 2013  10  16   657      700    -3   1258      1056
 5 2013  11   1   658      700    -2   1329      1015
 6 2013   3  18   1844      1847    -3    39      2219
 7 2013   4  17   1635      1640    -5   2049      1845
 8 2013   4  18   558      600    -2   1149      850
 9 2013   4  18   655      700    -5   1213      950
 10 2013   5  22   1827      1830    -3   2217      2010
 \# ℹ 19 more rows
 \# ℹ 11 more variables: arr_delay <dbl>, carrier <chr>, flight <int>,
 \#  tailnum <chr>, origin <chr>, dest <chr>, air_time <dbl>, distance <dbl>,
 \#  hour <dbl>, minute <dbl>, time_hour <dttm>

\# Were delayed by at least an hour, but made up over 30 minutes in flight
 del_made_up <- flights %>% 
  filter(dep_delay>=60 & arr_delay<=60)
 print(del_made_up)

\# A tibble: 3,969 × 19
   year month  day dep_time sched_dep_time dep_delay arr_time sched_arr_time
  <int> <int> <int>  <int>     <int>   <dbl>  <int>     <int>
 1 2013   1   1   826      715    71   1136      1045
 2 2013   1   1   1628      1524    64   1740      1641
 3 2013   1   1   1846      1745    61   2147      2055
 4 2013   1   1   2302      2200    62   2342      2253
 5 2013   1   2   1125      1020    65   1309      1223
 6 2013   1   2   1345      1240    65   1642      1555
 7 2013   1   2   1421      1314    67   1515      1415
 8 2013   1   2   1618      1516    62   1913      1825
 9 2013   1   2   1801      1655    66   1932      1843
 10 2013   1   2   2108      1954    74   2218      2119
 \# ℹ 3,959 more rows
 \# ℹ 11 more variables: arr_delay <dbl>, carrier <chr>, flight <int>,
 \#  tailnum <chr>, origin <chr>, dest <chr>, air_time <dbl>, distance <dbl>,
 \#  hour <dbl>, minute <dbl>, time_hour <dttm>
…
## Problem 3: What plane (specified by the tailnum variable) traveled the most times from New York City airports in 2013? Please left_join() the resulting table with the table planes (also included in the nycflights13 package).

For the plane with the greatest number of flights and that had more than 50 seats, please create a table where it flew to during 2013.

\# I will filter for the year 2013, the NYC airports and the tail number, using the !is.na() command to avoid an empty table givien that there are some missing values. I will then group by the tailnumber and use the summarise function to create a table with the number of flights per tailnumber.
 flight_counts <- flights %>%
  filter(year == 2013) %>%
  filter(origin %in% c("JFK", "LGA", "EWR")) %>%
  filter(!is.na(tailnum)) %>% 
  group_by(tailnum) %>%
  summarise(flight_count = n())
 
 print(flight_counts)

\# A tibble: 4,043 × 2
  tailnum flight_count
  <chr>     <int>
 1 D942DN       4
 2 N0EGMQ      371
 3 N10156      153
 4 N102UW      48
 5 N103US      46
 6 N104UW      47
 7 N10575      289
 8 N105UW      45
 9 N107US      41
 10 N108UW      60
 \# ℹ 4,033 more rows
…
most_flown_plane <- most_flights$tailnum
 
 print(most_flown_plane)

[1] "N725MQ"

\# I am left joining the the flight counts table with the planes table by the variable they have in common (tailnum), and then arranging it in descending order.
 joining_planes_flights <- left_join(flight_counts,
           planes, 
           by = "tailnum") %>%
  arrange(desc(flight_count))
 print(joining_planes_flights)

\# A tibble: 4,043 × 10
  tailnum flight_count year type    manufacturer model engines seats speed
  <chr>     <int> <int> <chr>    <chr>    <chr>  <int> <int> <int>
 1 N725MQ      575  NA <NA>    <NA>     <NA>    NA  NA  NA
 2 N722MQ      513  NA <NA>    <NA>     <NA>    NA  NA  NA
 3 N723MQ      507  NA <NA>    <NA>     <NA>    NA  NA  NA
 4 N711MQ      486 1976 Fixed wing… GULFSTREAM … G115…    2  22  NA
 5 N713MQ      483  NA <NA>    <NA>     <NA>    NA  NA  NA
 6 N258JB      427 2006 Fixed wing… EMBRAER   ERJ …    2  20  NA
 7 N298JB      407 2009 Fixed wing… EMBRAER   ERJ …    2  20  NA
 8 N353JB      404 2012 Fixed wing… EMBRAER   ERJ …    2  20  NA
 9 N351JB      402 2012 Fixed wing… EMBRAER   ERJ …    2  20  NA
 10 N735MQ      396  NA <NA>    <NA>     <NA>    NA  NA  NA
 \# ℹ 4,033 more rows
 \# ℹ 1 more variable: engine <chr>
…
\# What is the median arrival delay on a month-by-month basis in each airport?
 
 \# I group the data by month and origin and calculate the median arrival delay for each group. With the na.rm = TRUE argument I remove the missing values before calculating the median.
 flights %>%
  group_by(month, 
      origin) %>%
  summarise(median_arr_delay = median(arr_delay, 
                    na.rm = TRUE))

`summarise()` has grouped output by 'month'. You can override using the
 `.groups` argument.

\# A tibble: 36 × 3
 \# Groups:  month [12]
  month origin median_arr_delay
  <int> <chr>       <dbl>
 1   1 EWR          0
 2   1 JFK         -7
 3   1 LGA         -4
 4   2 EWR         -2
 5   2 JFK         -5
 6   2 LGA         -4
 7   3 EWR         -4
 8   3 JFK         -7
 9   3 LGA         -7
 10   4 EWR         -1
 \# ℹ 26 more rows
…
\# Had an arrival delay of two or more hours (> 120 minutes)
 delay_2hr <- flights %>% 
  filter(arr_delay>=120)
 print(delay_2hr)

\# A tibble: 10,200 × 19
   year month  day dep_time sched_dep_time dep_delay arr_time sched_arr_time
  <int> <int> <int>  <int>     <int>   <dbl>  <int>     <int>
 1 2013   1   1   811      630    101   1047      830
 2 2013   1   1   848      1835    853   1001      1950
 3 2013   1   1   957      733    144   1056      853
 4 2013   1   1   1114      900    134   1447      1222
 5 2013   1   1   1505      1310    115   1638      1431
 6 2013   1   1   1525      1340    105   1831      1626
 7 2013   1   1   1549      1445    64   1912      1656
 8 2013   1   1   1558      1359    119   1718      1515
 9 2013   1   1   1732      1630    62   2028      1825
 10 2013   1   1   1803      1620    103   2008      1750
 \# ℹ 10,190 more rows
 \# ℹ 11 more variables: arr_delay <dbl>, carrier <chr>, flight <int>,
 \#  tailnum <chr>, origin <chr>, dest <chr>, air_time <dbl>, distance <dbl>,
 \#  hour <dbl>, minute <dbl>, time_hour <dttm>

\# Flew to Houston (IAH or HOU)
 dest_IAH_HOU <- flights %>% 
  filter(dest=="IAH"|dest=="HOU")
 print(dest_IAH_HOU)

\# A tibble: 9,313 × 19
   year month  day dep_time sched_dep_time dep_delay arr_time sched_arr_time
  <int> <int> <int>  <int>     <int>   <dbl>  <int>     <int>
 1 2013   1   1   517      515     2   830      819
 2 2013   1   1   533      529     4   850      830
 3 2013   1   1   623      627    -4   933      932
 4 2013   1   1   728      732    -4   1041      1038
 5 2013   1   1   739      739     0   1104      1038
 6 2013   1   1   908      908     0   1228      1219
 7 2013   1   1   1028      1026     2   1350      1339
 8 2013   1   1   1044      1045    -1   1352      1351
 9 2013   1   1   1114      900    134   1447      1222
 10 2013   1   1   1205      1200     5   1503      1505
 \# ℹ 9,303 more rows
 \# ℹ 11 more variables: arr_delay <dbl>, carrier <chr>, flight <int>,
 \#  tailnum <chr>, origin <chr>, dest <chr>, air_time <dbl>, distance <dbl>,
 \#  hour <dbl>, minute <dbl>, time_hour <dttm>

\# we can also do filter(dest %in% c("IAH", "HOU"))
 
 \# Were operated by United (`UA`), American (`AA`), or Delta (`DL`)
 UA_AA_DL <- flights %>% 
  filter(carrier=="UA"| carrier=="AA"| carrier=="DL")
 print(UA_AA_DL)

\# A tibble: 139,504 × 19
   year month  day dep_time sched_dep_time dep_delay arr_time sched_arr_time
  <int> <int> <int>  <int>     <int>   <dbl>  <int>     <int>
 1 2013   1   1   517      515     2   830      819
 2 2013   1   1   533      529     4   850      830
 3 2013   1   1   542      540     2   923      850
 4 2013   1   1   554      600    -6   812      837
 5 2013   1   1   554      558    -4   740      728
 6 2013   1   1   558      600    -2   753      745
 7 2013   1   1   558      600    -2   924      917
 8 2013   1   1    558      600    -2   923      937
 9 2013   1   1   559      600    -1   941      910
 10 2013   1   1   559      600    -1   854      902
 \# ℹ 139,494 more rows
 \# ℹ 11 more variables: arr_delay <dbl>, carrier <chr>, flight <int>,
 \#  tailnum <chr>, origin <chr>, dest <chr>, air_time <dbl>, distance <dbl>,
 \#  hour <dbl>, minute <dbl>, time_hour <dttm>

\# Departed in summer (July, August, and September)
 summer_dep <- flights %>% 
  filter(month=="7"| month=="8"| month=="9")
 print(summer_dep)

\# A tibble: 86,326 × 19
   year month  day dep_time sched_dep_time dep_delay arr_time sched_arr_time
  <int> <int> <int>  <int>     <int>   <dbl>  <int>     <int>
 1 2013   7   1    1      2029    212   236      2359
 2 2013   7   1    2      2359     3   344      344
 3 2013   7   1    29      2245    104   151       1
 4 2013   7   1    43      2130    193   322       14
 5 2013   7   1    44      2150    174   300      100
 6 2013   7   1    46      2051    235   304      2358
 7 2013   7   1    48      2001    287   308      2305
 8 2013   7   1    58      2155    183   335       43
 9 2013   7   1   100      2146    194   327       30
 10 2013   7   1   100      2245    135   337      135
 \# ℹ 86,316 more rows
 \# ℹ 11 more variables: arr_delay <dbl>, carrier <chr>, flight <int>,
 \#  tailnum <chr>, origin <chr>, dest <chr>, air_time <dbl>, distance <dbl>,
 \#  hour <dbl>, minute <dbl>, time_hour <dttm>

\# Arrived more than two hours late, but didn't leave late
 arr_only_delay <-flights %>% 
  filter(arr_delay>=120 & dep_delay<=0)
 print(arr_only_delay)

\# A tibble: 29 × 19
   year month  day dep_time sched_dep_time dep_delay arr_time sched_arr_time
  <int> <int> <int>  <int>     <int>   <dbl>  <int>     <int>
 1 2013   1  27   1419      1420    -1   1754      1550
 2 2013  10   7   1350      1350     0   1736      1526
 3 2013  10   7   1357      1359    -2   1858      1654
 4 2013  10  16   657      700    -3   1258      1056
 5 2013  11   1   658      700    -2   1329      1015
 6 2013   3  18   1844      1847    -3    39      2219
 7 2013   4  17   1635      1640    -5   2049      1845
 8 2013   4  18   558      600    -2   1149      850
 9 2013   4  18   655      700    -5   1213      950
 10 2013   5  22   1827      1830    -3   2217      2010
 \# ℹ 19 more rows
 \# ℹ 11 more variables: arr_delay <dbl>, carrier <chr>, flight <int>,
 \#  tailnum <chr>, origin <chr>, dest <chr>, air_time <dbl>, distance <dbl>,
 \#  hour <dbl>, minute <dbl>, time_hour <dttm>

\# Were delayed by at least an hour, but made up over 30 minutes in flight
 del_made_up <- flights %>% 
  filter(dep_delay>=60 & arr_delay<=60)
 print(del_made_up)

\# A tibble: 3,969 × 19
   year month  day dep_time sched_dep_time dep_delay arr_time sched_arr_time
  <int> <int> <int>  <int>     <int>   <dbl>  <int>     <int>
 1 2013   1   1   826      715    71   1136      1045
 2 2013   1   1   1628      1524    64   1740      1641
 3 2013   1   1   1846      1745    61   2147      2055
 4 2013   1   1   2302      2200    62   2342      2253
 5 2013   1   2   1125      1020    65   1309      1223
 6 2013   1   2   1345      1240    65   1642      1555
 7 2013   1   2   1421      1314    67   1515      1415
 8 2013   1   2   1618      1516    62   1913      1825
 9 2013   1   2   1801      1655    66   1932      1843
 10 2013   1   2   2108      1954    74   2218      2119
 \# ℹ 3,959 more rows
 \# ℹ 11 more variables: arr_delay <dbl>, carrier <chr>, flight <int>,
 \#  tailnum <chr>, origin <chr>, dest <chr>, air_time <dbl>, distance <dbl>,
 \#  hour <dbl>, minute <dbl>, time_hour <dttm>
…
## Problem 3: What plane (specified by the tailnum variable) traveled the most times from New York City airports in 2013? Please left_join() the resulting table with the table planes (also included in the nycflights13 package).

For the plane with the greatest number of flights and that had more than 50 seats, please create a table where it flew to during 2013.

\# I will filter for the year 2013, the NYC airports and the tail number, using the !is.na() command to avoid an empty table givien that there are some missing values. I will then group by the tailnumber and use the summarise function to create a table with the number of flights per tailnumber.
 flight_counts <- flights %>%
  filter(year == 2013) %>%
  filter(origin %in% c("JFK", "LGA", "EWR")) %>%
  filter(!is.na(tailnum)) %>% 
  group_by(tailnum) %>%
  summarise(flight_count = n())
 
 print(flight_counts)

\# A tibble: 4,043 × 2
  tailnum flight_count
  <chr>     <int>
 1 D942DN       4
 2 N0EGMQ      371
 3 N10156      153
 4 N102UW      48
 5 N103US      46
 6 N104UW      47
 7 N10575      289
 8 N105UW      45
 9 N107US      41
 10 N108UW      60
 \# ℹ 4,033 more rows
…
most_flown_plane <- most_flights$tailnum
 
 print(most_flown_plane)

[1] "N725MQ"

\# I am left joining the the flight counts table with the planes table by the variable they have in common (tailnum), and then arranging it in descending order.
 joining_planes_flights <- left_join(flight_counts,
           planes, 
           by = "tailnum") %>%
  arrange(desc(flight_count))
 print(joining_planes_flights)

\# A tibble: 4,043 × 10
  tailnum flight_count year type    manufacturer model engines seats speed
  <chr>     <int> <int> <chr>    <chr>    <chr>  <int> <int> <int>
 1 N725MQ      575  NA <NA>    <NA>     <NA>    NA  NA  NA
 2 N722MQ      513  NA <NA>    <NA>     <NA>    NA  NA  NA
 3 N723MQ      507  NA <NA>    <NA>     <NA>    NA  NA  NA
 4 N711MQ      486 1976 Fixed wing… GULFSTREAM … G115…    2  22  NA
 5 N713MQ      483  NA <NA>    <NA>     <NA>    NA  NA  NA
 6 N258JB      427 2006 Fixed wing… EMBRAER   ERJ …    2  20  NA
 7 N298JB      407 2009 Fixed wing… EMBRAER   ERJ …    2  20  NA
 8 N353JB      404 2012 Fixed wing… EMBRAER   ERJ …    2  20  NA
 9 N351JB      402 2012 Fixed wing… EMBRAER   ERJ …    2  20  NA
 10 N735MQ      396  NA <NA>    <NA>     <NA>    NA  NA  NA
 \# ℹ 4,033 more rows
 \# ℹ 1 more variable: engine <chr>
…
\# What is the median arrival delay on a month-by-month basis in each airport?
 
 \# I group the data by month and origin and calculate the median arrival delay for each group. With the na.rm = TRUE argument I remove the missing values before calculating the median.
 flights %>%
  group_by(month, 
      origin) %>%
  summarise(median_arr_delay = median(arr_delay, 
                    na.rm = TRUE))

`summarise()` has grouped output by 'month'. You can override using the
 `.groups` argument.

\# A tibble: 36 × 3
 \# Groups:  month [12]
  month origin median_arr_delay
  <int> <chr>       <dbl>
 1   1 EWR          0
 2   1 JFK         -7
 3   1 LGA         -4
 4   2 EWR         -2
 5   2 JFK         -5
 6   2 LGA         -4
 7   3 EWR         -4
 8   3 JFK         -7
 9   3 LGA         -7
 10   4 EWR         -1
 \# ℹ 26 more rows
…
